https://hackthissitesoltution.wordpress.com/2011/01/13/extbasic-missions/
https://github.com/attilathedud/HackThisSite/tree/master/ExtBasic
http://sithlab.tistory.com/1337
http://c6h4cl2.lab.uy.to/1337
