https://raw.githubusercontent.com/akalin/cryptopals-python3/master/challenge36.py
https://raw.githubusercontent.com/akalin/cryptopals-python3/master/challenge36_server.py
https://raw.githubusercontent.com/akalin/cryptopals-python3/master/challenge36_util.py
https://raw.githubusercontent.com/technion/matasano_challenge/master/set5/chal36/chal36.rb
