https://www.youtube.com/watch?v=-jNStVrxIWk
https://www.youtube.com/watch?v=ahVpR3NdoKE
https://www.youtube.com/watch?v=hej0hBxfvJU
https://www.youtube.com/watch?v=qoq4OSDrEiM
https://raw.githubusercontent.com/attilathedud/HackThisSite/master/Application/README.md
