https://raw.githubusercontent.com/MVelez94/various/master/hack-the-box-emdee-five.php
https://sarthaksaini.com/2019/June/web-app/emdee-five-for-life.html
https://www.youtube.com/watch?v=XnDu-uT87xE
https://www.reddit.com/r/HowToHack/comments/c0ivj1/hack_the_box_web_challenge_emdee_five_for_life/
https://github.com/Hackplayers/hackthebox-writeups/raw/master/challenges/web/Emdee%20five%20for%20life/Sirbroccoli-Emdee%20five%20for%20life.pdf
https://www.ahmetakan.com/tag/emdee-five-for-life/
https://www.revolvy.com/page/Hack-The-Box-%252D-Reversing-Challenges-%252D-Find-The-Easy-Pass?stype=videos&cmd=list&sml=XnDu-uT87xE&cr=1
