https://www.postpwnedramblings.com/2018/07/hack-box-challenge-you-can-do-it.html
https://medium.com/write-ups-hackthebox/como-resolver-you-can-do-it-hackthebox-2e0bbf39fd10
https://swapnil-pathak.github.io/minimal-mistakes/hackthebox/htb-challenge-crypto-youcandoit/#
