https://raw.githubusercontent.com/alialliallie/exercism-solutions/master/go/rna-transcription/rna_transcription_test.go
https://raw.githubusercontent.com/alialliallie/exercism-solutions/master/haskell/rna-transcription/rna-transcription_test.hs
https://raw.githubusercontent.com/binupaul/exercism-java-solutions/master/java/rna-transcription/src/main/java/RnaTranscription.java
https://raw.githubusercontent.com/varunu28/Exercism-Python/master/rna-transcription/rna_transcription_test.py
https://exercism.io/tracks/javascript/exercises/rna-transcription/solutions/74fe3764d6e2455b887b18235ed97c67
https://exercism.io/tracks/lua/exercises/rna-transcription/solutions/0c4cf2e6178af14fb6b3955b
https://exercism.io/tracks/go/exercises/rna-transcription/solutions/c0726b73ac5946e8b74b835d3499389f
https://exercism.io/tracks/erlang/exercises/rna-transcription/solutions/feb39d095fca472596a3a1061efa13bf
