https://raw.githubusercontent.com/TheAaronCovington/Java-Coderbyte-Solutions/master/17ArrayAdditionI.java
https://raw.githubusercontent.com/ZLester/Coderbyte-Solutions/master/Easy/17%20-%20Array%20Addition.js
https://raw.githubusercontent.com/Nigelmnz/CoderbyteSolutions/master/17-ArrayAdditionI/17.hs
https://raw.githubusercontent.com/Gamer1092/Coderbyte/Easy/Array%20Addition%20I.cpp
https://raw.githubusercontent.com/designerGenes/CoderbyteInSwift/master/ArrayAdditionI/ArrayAdditionI.playground/Contents.swift
https://raw.githubusercontent.com/bolducp/coderbyte/master/easy/17_array_addition_I.py
