https://www.youtube.com/watch?v=RrmzESIGRco
https://www.youtube.com/watch?v=j_hc_asZFiM
https://www.youtube.com/watch?v=VF2fVTC_mPc
https://hackso.me/bulldog-2-walkthrough/
https://resources.infosecinstitute.com/bulldog-2-ctf-walkthrough/#gref
https://www.hackingarticles.in/hack-bulldog-vm-boot2root-challenge/
