https://www.gerrenmurphy.com/vulnhub-billu-b0x-2-walkthrough/
https://www.sevenlayers.com/index.php/90-vulnhub-billu-b0x-2-walkthrough
https://www.youtube.com/watch?v=xcga-zTDgUg
http://www.hackingarticles.in/hack-the-billu-b0x-2-vm-boot-to-root/
https://hk.saowen.com/a/bfee9f13e35ff73d8e73e5571a565a907bf1d8ac9773fec209a38e232d176b92
https://www.tnirmal.com.np/2018/07/vulnhub-billu-b0x-2-walkthrough.html?m=1
http://www.pentestingexperts.com/billubox-ctf-walkthrough-2/
https://www.theanuragsrivastava.in/2018/07/billu-b0x-2-walkthrough-vulnhub-machine.html
https://www.youtube.com/watch?v=hARBLI8lqJM
http://clipreview.net/x-vulnhub-billu-box-2-walkthrough-b_684152424c49386c714a4d.html
https://medium.com/@n4ckhcker/vulnhub-billu-b0x-2-writeup-20a2b0171056
