https://github.com/TheAaronCovington/Java-Coderbyte-Solutions/raw/master/10AlphabetSoup.java
https://github.com/bolducp/coderbyte/raw/master/easy/10_alphabet_soup.py
https://raw.githubusercontent.com/ZLester/Coderbyte-Solutions/master/Easy/10%20-%20Alphabet%20Soup.js
https://raw.githubusercontent.com/Nigelmnz/CoderbyteSolutions/master/10-AlphabetSoup/10.hs
https://raw.githubusercontent.com/brbcoding/Coderbyte/master/Easy/AlphabetSoup.rb
https://raw.githubusercontent.com/Samleo8/CoderByte/master/Easy/AlphabetSoup.c
https://raw.githubusercontent.com/Gamer1092/Coderbyte/Easy/Alphabet%20Soup.cpp
