https://www.youtube.com/watch?v=NMGsnPSm8iw
https://forum.hackthebox.eu/discussion/22/popcorn-write-up-by-arrexel
https://github.com/TheresAFewConors/HackTheBox-WriteUps/raw/master/Popcorn.pdf
https://www.hackingarticles.in/hack-the-box-challenge-popcorn-walkthrough/
https://redteamtutorials.com/2018/11/10/hack-the-box-popcorn/
https://medium.com/@zlkidda/hack-the-box-popcorn-11f5c7f77f5e
https://thehacktoday.com/hack-the-box-popcorn-walkthrough/
https://mundo-hackers.weebly.com/popcorn.html
https://www.rahulr.in/2018/08/hack-box-popcorn.html
