https://raw.githubusercontent.com/BirkhoffLee/wechall/master/exploit/Training%20MySQL%20I/README.md
https://raw.githubusercontent.com/stefanoschrs/wechall/master/Exploit/Exploit%20-%20MySQL%20Authentication%20Bypass
https://raw.githubusercontent.com/lc4t/OtherFiles/master/md/WeChall.md
http://sp4hack.blogspot.com.co/2012/10/we-chall-training-mysql-i.html
http://www.nowhere.co.jp/blog/archives/20150131-184542.html
http://wps2015.org/drops/drops/wechall%20mysql%E5%85%B3%E5%8D%A1%E9%A2%98%E8%A7%A3.html
http://byd.dropsec.xyz/2016/03/04/WeChall_writeup/#Training-MySQL-I
https://medium.com/bugbountywriteup/wechall-wargame-solutions-76f60ea39b16
https://pengyang.me/2018/08/19/wechall/#17training-mysql-i
