https://www.youtube.com/watch?v=CUbWpteTfio
https://ironhackers.es/en/writeups/writeup-falafel-hackthebox/
https://forum.hackthebox.eu/discussion/853/falafel-write-up-by-alamot#latest
https://www.youtube.com/watch?v=Mr0oPrlEFdo
https://hkh4cks.com/blog/2018/06/24/htb-falafel-walkthrough/
https://infosecuritygeek.com/hackthebox-falafel/
http://www.hackingarticles.in/hack-the-box-challenge-falafel-walkthrough/
https://video.hacking.reviews/2018/06/hackthebox-falafel.html
https://github.com/Hackplayers/hackthebox-writeups/tree/master/machines/Falafel
https://exploitnetworking.com/en/security-en/htb-falafel-writeup-2
https://blog.securitybits.io/2018/06/23/falafel-writeup/
https://0xdf.gitlab.io/2018/06/23/htb-falafel.html
https://krtube.net/CUbWpteTfio.html
