https://raw.githubusercontent.com/brijeshb42/cpp/master/hackerRank/correctness-invariant.c
https://raw.githubusercontent.com/fernandoBRS/HackerRank/master/correctness.cpp
https://raw.githubusercontent.com/charles-wangkai/hackerrank/master/correctness-invariant/Solution.java
https://raw.githubusercontent.com/ynyeh0221/HackerRank/master/Correctness%20and%20the%20Loop%20Invariant.py
