https://infamoussyn.com/2013/11/18/overthewire-narnia-level-0-4-writeup/#level0
http://blog.zairo.kr/entry/OverTheWire-%E2%80%93-Narnia-Level-0?category=570168
https://hackmethod.com/overthewire-narnia-0/
https://cplusperks.com/narnia/#level0
