https://blog.zairo.kr/entry/Wargamekr-Challenge-Tmitter
https://mandu-mandu.tistory.com/361
https://nullguberry.tistory.com/155?category=832470
https://ndb796.tistory.com/336
https://rootjonghyun.tistory.com/98
