https://raw.githubusercontent.com/BirkhoffLee/wechall/master/exploit/PHP-0817/README.md
https://raw.githubusercontent.com/stefanoschrs/wechall/master/Exploit/Exploit%20-%20PHP-0817
https://raw.githubusercontent.com/james9909/PracticeCTF/master/WeChall/PHP-0817/Solution.txt
http://blog.naver.com/PostView.nhn?blogId=dual5651&logNo=60131669138
http://sp4hack.blogspot.com.co/2012/10/we-chall-php-0817.html
http://byd.dropsec.xyz/2016/03/04/WeChall_writeup/#PHP-0817
https://medium.com/bugbountywriteup/wechall-wargame-solutions-76f60ea39b16
https://pengyang.me/2018/08/19/wechall/#12php-0817
