https://raw.githubusercontent.com/MAZHARMIK/HACKERRANK/master/Append%20and%20Delete
https://raw.githubusercontent.com/c650/hackerrank-solutions/master/Algorithms/Implementation/append-and-delete.cpp
https://raw.githubusercontent.com/charles-wangkai/hackerrank/master/append-and-delete/Solution.java
