https://raw.githubusercontent.com/zeyuanxy/code-forces/master/practice/vol1/038/38E.cpp
https://codeforces.com/contest/38/submission/71054485
https://codeforces.com/contest/38/submission/71029124
https://codeforces.com/contest/38/submission/70816427
https://codeforces.com/contest/38/submission/70792503
