https://raw.githubusercontent.com/ConorStokes/LZSSE/master/lzsse8/lzsse8.cpp
https://raw.githubusercontent.com/cstdvd/lz77/master/lz77.c
https://raw.githubusercontent.com/zhaihj/konami-lz77/master/src/lz77.rs
https://raw.githubusercontent.com/mirage/decompress/master/decompress.opam
https://raw.githubusercontent.com/LLcoolNJ/LZ77/master/src/lz77.py
https://raw.githubusercontent.com/DavePearce/LZ.wy/master/src/lz77/decoder.whiley
