https://www.youtube.com/watch?v=BxSD0cSjyNg&t=21s
https://github.com/njk464/pwnable.kr/blob/master/bof.sol
https://raw.githubusercontent.com/USCGA/writeups/master/pwnable.kr/bof/README.md
https://github.com/smholsen/pwnable.kr/blob/master/3-bof/readme.md
https://gist.github.com/ihciah/0ca68da3e32e38818bb9#3-bof
https://www.youtube.com/watch?v=MwOJkXdJOv4
https://www.youtube.com/watch?v=Nmoi9UoiuBM
