http://sp4hack.blogspot.com/2012/10/we-chall-training-www-robots.html
https://raw.githubusercontent.com/BirkhoffLee/wechall/master/exploit/Training%20WWW-Robots/README.md
https://raw.githubusercontent.com/james9909/PracticeCTF/master/WeChall/WWW-Robots/Solution.txt
https://raw.githubusercontent.com/lc4t/OtherFiles/master/md/WeChall.md
https://blog.csdn.net/justesss/article/details/39051137
https://z0mbi2.tistory.com/14
https://sithlab.tistory.com/1092
http://byd.dropsec.xyz/2016/03/04/WeChall_writeup/#Training-WWW-Robots
https://raw.githubusercontent.com/mzet-/ctf-writeups/master/wechall.net/wechall.md
