https://raw.githubusercontent.com/ShrikantJadhav/HackerRank-Solutions/master/AlternatingCharacters.cpp
https://raw.githubusercontent.com/havelessbemore/hackerrank/master/algorithms/strings/alternating-characters.java
https://raw.githubusercontent.com/danhenriquesc/hackerrank/master/algorithms/strings/alternating_characters.py
https://raw.githubusercontent.com/rofrol/rust-hackerrank/master/src/bin/alternating-characters.rs
