https://fcha256.wordpress.com/2019/10/29/picoctf-2019-part-1/
https://github.com/RetroCraft/picoctf-2019/tree/master/web-exploitation/Insp3ct0r
https://github.com/cerc-undip/picoCTF2019-writeup/tree/master/insp3ct0r
https://github.com/kevinjycui/picoCTF-2019-writeup/tree/master/Web%20Exploitation/Insp3ct0r
https://nikkiestutorials.com/tag/john-hammond/
https://qiita.com/kusano_k/items/0e9d29ee9f6bda614a1d
https://tsalvia.hatenablog.com/entry/2019/10/12/053834
https://raw.githubusercontent.com/Chad-Ballay/CTF-writeups/master/picoCTF2019/inspector.md
https://rszone.info/view/d1hLSWxlNjNDem8.html
https://www.youtube.com/watch?v=wXKIle63Czo

