https://raw.githubusercontent.com/nikzsaz/Codeforces-solution/master/47A-TriangularNumber.cpp
http://codeforces.com/contest/47/submission/213033
http://codeforces.com/contest/47/submission/51971905
http://codeforces.com/contest/47/submission/56015717
http://codeforces.com/contest/47/submission/769505
http://codeforces.com/contest/47/submission/1629300
http://codeforces.com/contest/47/submission/15913508
http://codeforces.com/contest/47/submission/769459
http://codeforces.com/contest/47/submission/769490
http://codeforces.com/contest/47/submission/35862923
http://codeforces.com/contest/47/submission/35870098
http://codeforces.com/contest/47/submission/35870725
http://codeforces.com/contest/47/submission/35870750
http://codeforces.com/contest/47/submission/35874287
http://codeforces.com/contest/47/submission/35875081
http://codeforces.com/contest/47/submission/35874885
http://codeforces.com/contest/47/submission/67634737
http://codeforces.com/contest/47/submission/215447
http://codeforces.com/contest/47/submission/2153901
http://codeforces.com/contest/47/submission/34898680
http://codeforces.com/contest/47/submission/36508889
http://codeforces.com/contest/47/submission/41982765
http://codeforces.com/contest/47/submission/4747435
http://codeforces.com/contest/47/submission/36491987
http://codeforces.com/contest/47/submission/49466018
http://codeforces.com/contest/47/submission/49466067
http://codeforces.com/contest/47/submission/49466359
http://codeforces.com/contest/47/submission/215208
http://codeforces.com/contest/47/submission/1434577
http://codeforces.com/contest/47/submission/34898911
http://codeforces.com/contest/47/submission/215206
http://codeforces.com/contest/47/submission/2469249
http://codeforces.com/contest/47/submission/215198
http://codeforces.com/contest/47/submission/2525643
http://codeforces.com/contest/47/submission/215222
http://codeforces.com/contest/47/submission/4747458
http://codeforces.com/contest/47/submission/2041132
http://codeforces.com/contest/47/submission/21821946
http://codeforces.com/contest/47/submission/52231722
http://codeforces.com/contest/47/submission/34511175
http://codeforces.com/contest/47/submission/273782
http://codeforces.com/contest/47/submission/407004
http://codeforces.com/contest/47/submission/215205
http://codeforces.com/contest/47/submission/474302
http://codeforces.com/contest/47/submission/23537170
http://codeforces.com/contest/47/submission/5492556
http://codeforces.com/contest/47/submission/215204
http://codeforces.com/contest/47/submission/2549540
http://codeforces.com/contest/47/submission/568671
http://codeforces.com/contest/47/submission/327693
http://codeforces.com/contest/47/submission/260126
