https://raw.githubusercontent.com/danhenriquesc/hackerrank/master/algorithms/implementation/breaking_best_and_worst_records.cpp
https://raw.githubusercontent.com/RyanFehr/HackerRank/master/Algorithms/Implementation/Breaking%20the%20Records/Solution.cs
https://raw.githubusercontent.com/charles-wangkai/hackerrank/master/breaking-best-and-worst-records/Solution.java
https://raw.githubusercontent.com/sapanz/Hackerrank-Python-Solutions/master/HackerRank-Breaking%20the%20Records/Breaking_the_Records.py
