https://raw.githubusercontent.com/BlakeBrown/HackerRank-Solutions/master/Algorithms/Strings/Pangrams.cpp
https://raw.githubusercontent.com/charles-wangkai/hackerrank/master/pangrams/Solution.java
https://raw.githubusercontent.com/danhenriquesc/hackerrank/master/algorithms/strings/pangrams.php
https://raw.githubusercontent.com/danhenriquesc/hackerrank/master/algorithms/strings/pangrams.py
