https://khr0x40sh.wordpress.com/2014/02/28/smashthestack-orgs-logic-tutorialhints-level-2/
https://raw.githubusercontent.com/roku6185/smashthestack/master/logic/level2/exploit.c
https://regala.im/2013/03/05/smashthestack-org-logic-level-2-writeup-12/
http://seanmurphree.com/blog/?p=263
