https://github.com/luceatnobis/challenges/tree/master/net-force.nl/what_am_i
https://raw.githubusercontent.com/djcomidi/netforce/master/internet/level702/solution.py
https://resources.infosecinstitute.com/defeating-conundrums-solutions-to-net-force-internet-ctf-challenges/#gref

