https://exercism.io/tracks/python/exercises/rational-numbers/solutions/1e5dbae1fceb436199f54aac8b25bb8b
https://exercism.io/tracks/bash/exercises/rational-numbers/solutions/a7585618307940a5b11aa06c8a99a1f2
https://exercism.io/tracks/csharp/exercises/rational-numbers/solutions/efa16a05a294462fb5b2f43771c9554a
https://exercism.io/tracks/julia/exercises/rational-numbers/solutions/98a74a2a5a114e4d8ac0e4f6a6b90047
https://exercism.io/tracks/javascript/exercises/rational-numbers/solutions/45f90077ed8e4dc5b54007357c1d8706
https://exercism.io/tracks/c/exercises/rational-numbers/solutions/8c346772224b43e895cbc7b1d2d1618a
https://exercism.io/tracks/delphi/exercises/rational-numbers/solutions/f588b2f8b92a4744bbcfcf76b75e33e0
https://exercism.io/tracks/erlang/exercises/rational-numbers/solutions/41beeace40e04331a0a8dbb772d40cf4
https://exercism.io/tracks/fsharp/exercises/rational-numbers/solutions/b7c27820ab234838a4ad6500d5bc81b5
https://exercism.io/tracks/java/exercises/rational-numbers/solutions/8f6793d2fa65463ea31e038e854da538
https://exercism.io/tracks/lua/exercises/rational-numbers/solutions/a5d212d12655466ea4e27965c40920a6
https://exercism.io/tracks/python/exercises/rational-numbers/solutions/963a693fbd3049b797958299abf93209
https://exercism.io/tracks/typescript/exercises/rational-numbers/solutions/2ea1b20269d44be0af6767b0095fd94b
