https://raw.githubusercontent.com/ArnoldM904/CodeAbbey_Solutions/master/Python/id021-Array_Counters.py
https://raw.githubusercontent.com/gravoo/codeabbey/master/Array%20Counters%20.cpp
https://raw.githubusercontent.com/Tempurturtul/CodeAbbey/master/C%23/ArrayCounters.cs
https://raw.githubusercontent.com/JFMurphy/Codeabbey-solutions/master/Java/P021_ArrayCounters.java
https://raw.githubusercontent.com/chriswood/codeabbey/master/caid21.lisp
https://raw.githubusercontent.com/mpeshehonov/Codeabbey/master/practice/%2321/index.php
https://raw.githubusercontent.com/mmcdon20/code_abbey/master/src/main/scala/Abbey021.scala
https://raw.githubusercontent.com/SmellyIrishMan/CodeAbbeyProblems/master/CodeAbbeyProblems/ArrayCounter.fs
https://raw.githubusercontent.com/McQuinTrix/CodeAbbey/master/21.%20Array_Counters.js
https://raw.githubusercontent.com/JesseClarkND/codeabbey_in_C-NET/master/Array%20Counters
https://codereview.stackovernet.com/es/q/34263
https://codereview.stackexchange.com/questions/138638/codeabbey-21-array-counters
