https://raw.githubusercontent.com/sile/euler.rs/master/euler_03/src/problem086.rs
https://raw.githubusercontent.com/nayuki/Project-Euler-solutions/master/java/p086.java
https://raw.githubusercontent.com/nayuki/Project-Euler-solutions/master/python/p086.py
https://www.mathblog.dk/project-euler-86-shortest-path-cuboid/
