https://raw.githubusercontent.com/codejoydo/codeforces/master/160a.c
https://raw.githubusercontent.com/mpfeifer1/Codeforces/master/160a.cpp
https://raw.githubusercontent.com/yeicol/CodeForces/master/CF160ATwins.java
https://raw.githubusercontent.com/dwiajik/codeforces/master/160A.py
