https://raw.githubusercontent.com/codejoydo/codeforces/master/112a.c
https://raw.githubusercontent.com/nikzsaz/Codeforces-solution/master/112A-PatyaAndString.cpp
https://raw.githubusercontent.com/yeicol/CodeForces/master/CF112APetyaAndStrings.java
https://raw.githubusercontent.com/Erfaniaa/Codeforces/master/112A-PetyaandStrings.pas
https://cfsolv.blogspot.com/search/label/cf%20112A
https://cfsolv.blogspot.com/search/label/Codeforces%20112A%20Petya%20and%20Strings%20solution
