https://raw.githubusercontent.com/nayuki/Project-Euler-solutions/master/java/p112.java
https://raw.githubusercontent.com/nayuki/Project-Euler-solutions/master/python/p112.py
https://www.mathblog.dk/project-euler-112-density-bouncy-numbers/
