http://hackerorgsolution.blogspot.com.co/2014/09/more-dastardly.html
https://raw.githubusercontent.com/keroro520/Hacker.org/master/More%20Dastardly
https://raw.githubusercontent.com/imaohw/hacker.org/master/013/solve.txt

