https://raw.githubusercontent.com/ysmolsky/cryptopals-matasano-solutions/master/14/main.go
https://raw.githubusercontent.com/Daeinar/cryptopals/master/src/c14.rs
https://raw.githubusercontent.com/jaybosamiya/cryptopals-solutions/master/set2/14/run.py
https://raw.githubusercontent.com/akalin/cryptopals-python3/master/challenge14.py
https://github.com/technion/matasano_challenge/blob/master/set2/chal14/chal14.rb
