https://raw.githubusercontent.com/nayuki/Project-Euler-solutions/master/java/p098.java
https://raw.githubusercontent.com/nayuki/Project-Euler-solutions/master/python/p098.py
https://www.mathblog.dk/project-euler-98-anagrams-square-numbers/
