https://raw.githubusercontent.com/nayuki/Project-Euler-solutions/master/java/p100.java
https://raw.githubusercontent.com/nayuki/Project-Euler-solutions/master/python/p100.py
https://www.mathblog.dk/project-euler-100-blue-discs-two-blue/
