https://raw.githubusercontent.com/ch33z-plz/Walkthrough/master/README.md
https://ub3rsec.github.io/pages/2016/pwnos10.html
https://chousensha.github.io/blog/2016/02/15/pentest-lab-pwnos/
http://forelsec.blogspot.com/2012/06/solving-pwn0s.html
http://devloop.users.sourceforge.net/index.php?article81/solution-du-ctf-pwnos-v1-0
http://fallensnow-jack.blogspot.com/2011/10/learning-pwnos-v1.html
https://blog.g0tmi1k.com/2010/04/pwnos/

