https://0xrick.github.io/hack-the-box/access/
https://medium.com/@hussaini.faisal/hackthebox-writeup-access-e6a199568fd6
https://medium.com/ctf-writeups/hack-the-box-access-write-up-33ab4cb7d9b3
https://www.sombrero-blanco.com/hack-the-box/hack-the-box-writeup-htb-access-spanish/
https://0x00sec.org/t/hackthebox-write-up-access/12271
https://snowscan.io/htb-writeup-access/
https://www.hackingarticles.in/hack-the-box-access-walkthrough/
https://www.youtube.com/watch?v=Rr6Oxrj2IjU
