https://raw.githubusercontent.com/JFMurphy/Codeabbey-solutions/master/Python/P013WeightedSumOfDigits.py
https://raw.githubusercontent.com/marclerodrigues/ruby_exercises/master/weighted_sum_of_digits.rb
https://raw.githubusercontent.com/Tempurturtul/CodeAbbey/master/C%23/WeightedSumOfDigits.cs
https://raw.githubusercontent.com/JFMurphy/Codeabbey-solutions/master/Java/P013_WeightedSumOfDigits.java
https://raw.githubusercontent.com/chriswood/codeabbey/master/ca13.lisp
https://raw.githubusercontent.com/DylanLenz/codeAbbey_Solutions_JavaScript/master/weightedSumOfDigits_codeAbbey_13.js
https://raw.githubusercontent.com/mpeshehonov/Codeabbey/master/practice/%2313/index.php
https://raw.githubusercontent.com/mmcdon20/code_abbey/master/src/main/scala/Abbey013.scala
https://raw.githubusercontent.com/vinitkantrod/go-codeabbey/master/14_weighted_sum_of_digits/main.go
https://raw.githubusercontent.com/skilled19/sols/master/JCDenton-13-weighted-sum-of-digits.fs
https://raw.githubusercontent.com/skilled19/sols/master/harv/codeabbey-13-weighted-sum-of-digits.vb
https://raw.githubusercontent.com/skilled19/sols/master/harv/codeabbey-13-weighted-sum-of-digits.pl
https://raw.githubusercontent.com/JesseClarkND/codeabbey_in_C-NET/master/Weighted%20sum%20of%20digits
https://stackoverflow.com/questions/50180221/weighted-sum-of-digits-in-r
https://repl.it/@IVB107/CodeAbbey-13
http://www.javaforstudents.co.uk/Code_snippets/Sum_of_digits_of_a_number
https://www.coursehero.com/file/p6r2mt4/To-calculate-the-weighted-sum-of-digits-of-an-integer-we-multiply-each-digit-by/
https://www.geeksforgeeks.org/count-of-n-digit-numbers-whose-sum-of-digits-equals-to-given-sum/
https://www.hackerrank.com/challenges/s10-weighted-mean/forum
https://raw.githubusercontent.com/ValeWasTaken/CodeAbbey_Solutions/master/Python/id013-Weighted_sum_of_digits.py
