https://raw.githubusercontent.com/BOAKGP/CTF-Writeups/master/PicoCTF%202017/Level%202/Cryptography/LeakedHashes/README.md
https://github.com/lflare/picoctf_2017_writeup/tree/master/cryptography/leakedhashes
https://www.rootnetsec.com/picoctf-leaked-hashes/
