http://blog.csdn.net/qq_19876131/article/details/50927701
http://byd.dropsec.xyz/2016/07/23/Webchall-CTF-writeup2/
https://medium.com/bugbountywriteup/wechall-wargame-solutions-76f60ea39b16
https://chybeta.github.io/2017/09/08/WeChall-PHP-writeup/

