https://www.youtube.com/watch?v=9ZXG1qb8lUI
http://www.hackingarticles.in/hack-the-box-challenge-haircut-walkthrough/https://www.youtube.com/watch?v=Vh5z-gOjwqs
https://hkh4cks.com/blog/2017/12/30/htb-haircut-walkthrough/
https://resources.infosecinstitute.com/hack-the-box-htb-machines-walkthrough-series-haircut/#gref
https://thehacktoday.com/hack-the-box-haircut-walkthrough/
https://securityboulevard.com/2018/12/hack-the-box-htb-machines-walkthrough-series-haircut/
https://www.jdksec.com/hack-the-box/haircut
https://hackersgeeks.blogspot.com/2018/04/hack-box-challenge-haircut-walkthrough_1.html
https://www.puckiestyle.nl/htb-haircut/
https://fwhibbit.es/htb-write-up-haircut
