https://raw.githubusercontent.com/sile/euler.rs/master/euler_02/src/problem061.rs
https://raw.githubusercontent.com/nayuki/Project-Euler-solutions/master/java/p061.java
https://www.mathblog.dk/project-euler-61-numbers-cyclic-property/
