23
GOLD 171 170 169 170 172 174 174 175 174 175 175 176 177 176
DALG 49 53 52 56 59 62 61 59 59 63 60 58 60 63
BLEP 54 56 54 52 53 52 53 52 54 54 54 53 51 49
OBAM 122 123 122 122 121 122 122 121 120 119 118 119 118 117
FANT 21 23 23 21 19 18 18 19 20 20 21 23 23 21
FLNT 23 22 21 23 23 23 21 22 21 20 22 22 21 19
JOOG 25 24 20 19 16 18 22 25 26 24 20 20 20 20
ASDF 205 204 202 206 202 202 199 203 199 199 195 191 194 196
CKCL 25 24 24 23 22 20 20 19 20 18 20 20 22 23
MYTH 27 26 25 25 24 24 22 21 21 23 21 21 19 21
WOWY 37 37 37 38 39 40 41 42 42 43 43 42 41 40
INSX 59 61 58 54 51 52 55 53 50 54 50 46 45 43
IMIX 25 29 31 33 35 33 33 29 27 28 26 27 23 27
SUGR 31 34 36 36 34 37 37 35 38 41 42 39 42 40
SAKK 232 232 230 228 229 229 231 233 230 233 235 236 238 240
ZEOD 138 142 141 139 136 134 130 133 132 128 124 123 126 122
GEEK 33 35 36 34 36 37 35 35 35 36 36 37 37 39
JABA 41 43 45 48 48 44 47 47 47 49 50 51 48 51
MARU 23 24 23 22 22 23 24 25 25 25 26 25 26 25
PNSN 75 78 81 82 82 82 81 78 81 81 84 87 87 86
SLVR 61 57 56 59 63 67 64 67 63 59 55 58 58 62
JEOP 75 74 73 73 72 71 72 71 70 70 70 69 70 69
VDKL 24 28 28 25 27 27 25 28 27 29 31 35 33 34
