https://raw.githubusercontent.com/DionysiosB/CodeAbbey/master/MostFrequentWord.cpp
https://raw.githubusercontent.com/igor-kutepov/codeabbey/master/src/main/java/com/kutepov/samples/codeabbey/MostFrequentWord.java
https://raw.githubusercontent.com/mmcdon20/code_abbey/master/src/main/scala/Abbey070.scala
https://raw.githubusercontent.com/JesseClarkND/codeabbey_in_C-NET/master/Most%20Frequent%20Word
