29
14 H-D E-H X-D O-E C-E R-O Z-X U-O A-D I-O Y-H P-R K-A F-I
18 B-D K-D Z-B O-B F-O N-D P-Z S-P I-Z V-B A-S M-V J-V R-V H-K C-R L-Z J-D
16 V-L J-L W-V Y-W I-L O-V H-I X-Y M-W Z-I S-M K-Y N-H F-M Q-I T-I
22 E-L M-L B-L W-B K-E S-L Z-M Y-L F-M Q-E A-Q R-S V-S X-W U-R D-K O-X H-D I-D P-Q T-L J-U
13 I-P M-I O-I X-I C-O W-O S-M L-P E-O D-L T-X A-L U-O
7 C-B O-B H-O V-H U-B G-B U-C
10 O-Q F-O Y-Q D-F H-Q G-D B-G P-Y T-H B-F
15 Q-X G-X U-Q P-U F-Q L-Q W-L H-G D-G Z-L T-L V-Q R-T N-P J-U
11 O-E Y-E W-Y J-O L-E U-J N-W R-E S-U B-E K-J
19 P-T X-T F-X Z-P D-P K-D U-F A-Z C-A I-A M-D Y-M B-P W-F S-F J-M Q-A G-T Z-I
16 E-B I-E M-E V-I J-E Y-I G-V T-Y A-I U-Y K-T D-J L-G F-L S-J W-T
21 L-Q M-Q W-Q K-M J-M B-L A-W I-L Y-A P-W O-Q E-Q S-O X-A G-O D-J T-X U-J V-I R-P L-G
18 I-S H-S L-I B-I U-B C-U P-L X-U V-P R-V T-V Z-I F-B E-I D-R Y-E K-D Z-U
20 Y-G A-Y K-Y X-Y E-G T-X N-E Z-G H-Y L-T S-E F-T B-S W-F D-Z O-W M-H U-O P-X V-S
20 Q-C T-Q J-C E-Q P-C U-T G-J F-T K-F H-K W-J O-G M-E L-J A-T Z-F D-Z N-P B-J J-H
20 C-U B-U W-C Z-U I-W S-B H-C G-B J-Z Q-J M-G A-Q V-G D-U X-W P-S Y-I R-P F-H K-B
9 J-W F-J L-J E-J O-L U-J Z-F D-Z U-Z
11 V-D K-V L-D E-K J-K Y-L X-V O-E W-D F-W G-L
20 I-L P-I J-P G-J C-P S-P A-L X-P V-I Z-A O-S R-X D-G U-I K-C B-A W-K F-A M-K A-M
6 B-R X-B K-X Q-X P-Q M-R
22 X-M Q-X I-Q E-I B-M S-B K-S F-X A-I Y-F T-Y J-Q P-E C-B N-M L-E G-X W-K H-G V-I O-A D-H
13 Q-U J-U I-J M-I H-J T-M V-M E-U G-V O-Q S-V B-I I-G
15 S-J R-J V-J Q-R I-J H-V Z-R U-R B-S A-U N-V X-Z M-B L-X I-U
8 M-W B-W H-W E-H I-H R-B N-W V-N
22 G-C E-G T-E P-C N-G I-N F-E K-P U-I L-I D-I S-I Z-I Q-L A-Q J-P B-N X-T Y-K M-K R-B O-L
20 S-G F-S R-S J-R D-G A-R U-S M-A C-M V-D X-C Y-U Z-X H-G P-R L-R T-J O-J Q-C H-V
11 K-I D-K X-I V-D S-I M-K U-D A-K G-I Y-G G-U
17 E-P J-E G-E K-G Q-E D-Q S-P N-J L-Q Y-G O-S C-O V-J M-J F-M W-M Q-L
23 I-J E-I Y-I H-Y G-E M-Y B-J Z-M R-I C-J P-Y X-B S-Y A-Y V-E N-E W-S K-S L-P O-W U-H F-B N-C
