https://raw.githubusercontent.com/ZLester/Coderbyte-Solutions/master/Medium/12%20-%20Simple%20Mode.js
https://raw.githubusercontent.com/Gamer1092/Coderbyte-Medium/Medium/Simple%20Mode.cpp
https://raw.githubusercontent.com/bolducp/coderbyte/master/medium/12_simple_mode.py
https://raw.githubusercontent.com/brbcoding/Coderbyte/master/Medium/SimpleMode.rb
https://raw.githubusercontent.com/designerGenes/CoderbyteInSwift/master/SimpleMode/SimpleMode.playground/Contents.swift
