https://www.mathblog.dk/solution-to-problem-8-of-project-euler/
https://raw.githubusercontent.com/nayuki/Project-Euler-solutions/master/haskell/p008.hs
https://raw.githubusercontent.com/nayuki/Project-Euler-solutions/master/java/p008.java
https://raw.githubusercontent.com/nayuki/Project-Euler-solutions/master/mathematica/p008.mathematica
https://raw.githubusercontent.com/nayuki/Project-Euler-solutions/master/python/p008.py
https://raw.githubusercontent.com/zsiciarz/euler.rs/master/src/solutions/problem8.rs
https://raw.githubusercontent.com/samskivert/euler-scala/master/Euler008.scala
https://raw.githubusercontent.com/lilyball/projecteuler-ocaml/master/prob8.ml
https://raw.githubusercontent.com/necolas/project-euler/master/008/008.js
https://raw.githubusercontent.com/danielfm/euler-clojure/master/euler/problem_8.clj
https://raw.githubusercontent.com/eagletmt/project-euler-c/master/1-9/problem8.c
https://raw.githubusercontent.com/EaterOA/Euler/master/1-25/euler008.cpp
https://raw.githubusercontent.com/fedeisas/project-euler/master/08/run.php
https://raw.githubusercontent.com/johnmyleswhite/projecteuler.jl/master/008.jl
https://raw.githubusercontent.com/jpillora/euler-in-perl/master/008.pl
https://raw.githubusercontent.com/jmoiron/euler.go/master/008.go
