https://www.youtube.com/watch?v=kWTnVBIpNsE
https://www.hackingarticles.in/hack-the-box-challenge-optimum-walkthrough/
https://medium.com/@kapilvermarbl/optimum-walk-through-hackthebox-htb-7ea1432e2d11
https://medium.com/@barpoet/hackthebox-optimum-walkthrough-2a5824c77a15
https://resources.infosecinstitute.com/hack-the-box-htb-machines-walkthrough-series-optimum/#gref
https://securityboulevard.com/2019/01/hack-the-box-htb-machines-walkthrough-series-optimum/
https://ethicalhackingguru.com/hack-the-box-optimum-walkthrough/
https://www.freecodecamp.org/news/keep-calm-and-hack-the-box-optimum/
https://www.youtube.com/watch?v=8A_rpbafJis
