https://github.com/nuc13us/ctf-solutions/blob/master/Treeeeeeee.py
https://github.com/deepakgouda/CTF-Writeups/blob/master/RiceTeaCatPanda/Solution.md#problem-description---8
https://matesz44.github.io/writeups/ctf/rtcp_2020/general/treeeeee/
https://raw.githubusercontent.com/notPearl/RTCP-CTF-Writeups/master/Treeeeeeee%20(200)/README.md
