https://tgraph.io/CTF-Kurs-molodogo-bojca-Nachalnye-zadaniya-kategorii-Crypto-08-19
https://0xleaner-mm.blogspot.com/2016/07/root-mecryptanalysis-encoding.html
https://thinbashane.wordpress.com/2015/10/22/root-me-cryptanalysis-encoding-ascii/
https://withpwn.com/Encoding-ASCII/
https://underc0de.org/foro/soluciones-de-wargames/(root-me)-encoding-ascii/
https://mandu-mandu.tistory.com/227
https://blog.encrypted.gg/739
