https://raw.githubusercontent.com/mcuin/JavaProjects/master/Triangles/src/Triangles.java
https://raw.githubusercontent.com/JFMurphy/Codeabbey-solutions/master/Python/P009Triangles.py
https://raw.githubusercontent.com/Tempurturtul/CodeAbbey/master/C%23/Triangles.cs
https://raw.githubusercontent.com/John-Russell/CodeAbbey/master/Triangles.rb
https://raw.githubusercontent.com/chriswood/codeabbey/master/caid9.lisp
https://raw.githubusercontent.com/DylanLenz/codeAbbey_Solutions_JavaScript/master/triangles_codeAbbey_9.js
https://raw.githubusercontent.com/mpeshehonov/Codeabbey/master/practice/%239/index.php
https://raw.githubusercontent.com/mmcdon20/code_abbey/master/src/main/scala/Abbey009.scala
https://raw.githubusercontent.com/vinitkantrod/go-codeabbey/master/17_triangles/main.go
https://gitlab.com/CodeArtisan/codeabbey/raw/master/problem_9/solution.rkt
https://raw.githubusercontent.com/skilled19/sols/master/harv/codeabbey-9-triangles.hs
https://raw.githubusercontent.com/skilled19/sols/master/harv/codeabbey-9-triangles.vb
https://raw.githubusercontent.com/skilled19/sols/master/harv/codeabbey-9-triangles.ml
https://raw.githubusercontent.com/skilled19/sols/master/harv/codeabbey-9-triangles.jl
https://raw.githubusercontent.com/YetAnotherMinion/YAMScratch/master/CodeAbbey/rust-sol/src/9.rs
https://raw.githubusercontent.com/ValeWasTaken/CodeAbbey_Solutions/master/Python/id009-Triangles.py
