https://raw.githubusercontent.com/pastelito02/Challenges-sol/master/Codeabbey/137/DaveRoox.py
https://raw.githubusercontent.com/pastelito02/Challenges-sol/master/Codeabbey/137/Dmytro%20Pryhornytskyi.php
https://raw.githubusercontent.com/pastelito02/Challenges-sol/master/Codeabbey/137/Efistus.java
https://raw.githubusercontent.com/pastelito02/Challenges-sol/master/Codeabbey/137/JimmyCarlos.py
https://raw.githubusercontent.com/pastelito02/Challenges-sol/master/Codeabbey/137/Serenade.java
https://raw.githubusercontent.com/pastelito02/Challenges-sol/master/Codeabbey/137/Tehel.js
https://raw.githubusercontent.com/pastelito02/Challenges-sol/master/Codeabbey/137/chrisdfrey.py
https://raw.githubusercontent.com/pastelito02/Challenges-sol/master/Codeabbey/137/divyanshu.sharma.ece12.py
https://raw.githubusercontent.com/pastelito02/Challenges-sol/master/Codeabbey/137/ferchoafta.lua
https://raw.githubusercontent.com/pastelito02/Challenges-sol/master/Codeabbey/137/relativity.java
