https://raw.githubusercontent.com/DionysiosB/CodeAbbey/master/ModularExponentiation.cpp
https://raw.githubusercontent.com/GuillermoLopezJr/CodeAbbey/master/Abbey145/main.py
https://gitlab.com/CodeArtisan/codeabbey/raw/master/problem_145/solution.rkt
https://raw.githubusercontent.com/JesseClarkND/codeabbey_in_C-NET/master/Modular%20Exponentiation
