5971406908116518
739?233746090936
8891733674480349
14936929?9784665
8952?95656212556
10394877716688?1
98009711349?4224
63208311818255?1
3755532032706455
4681015690023305
97?2539125121550
6042024824?38036
1707722994899069
8183910141506304
1515180224139224
22936846063?2561
5323786318426087
3767635982563016
5113852867840473
8724891260?39025
4870577486691546
6442934446?26085
?566941041650605
3831032700446162
4904?06462087967
?358385699350507
3319758665633?66
28?6202991376189
6826872662348481
5093888?08349383
8973246034398451
?715121934005225
5733864765651880
?308899351638374
10110938466153?4
853629?733311629
78066986?6647247
2557443471614394
4780561368993124
1414926608258502
7509566416613898
