https://raw.githubusercontent.com/Xzya/CodeAbbeySolutions/master/WanderingStar.py
https://stackoverflow.com/questions/29588892/wandering-star-codeabbey-task
https://codeday.me/es/qa/20190416/508735.html
https://raw.githubusercontent.com/Gisleburt/WanderingStar/master/WanderingStar/src/main.cpp
