http://sp4hack.blogspot.com/2013/05/hack-this-site-stego-7.html
https://www.youtube.com/watch?v=ocDTZ33sIuE
https://github.com/attilathedud/HackThisSite/tree/master/Realistic
https://github.com/divyanshusahu/HackThisSite/tree/master/Stego#mission-7
