https://raw.githubusercontent.com/ArnoldM904/CodeAbbey_Solutions/master/Python/id157_Emirp_primE.py
https://raw.githubusercontent.com/priojeetpriyom/competitive-programming/236efb22b1d85949a3088a6f5c7d2d6bb3dcc663/uva/10235%20-%20Simply%20Emirp.cpp
https://raw.githubusercontent.com/andrew-g-gonzales/Functional_CSharp_Number_Theory/bc0ee5552441090f0527caebe8fd051104991ee3/Prime_Numbers_Tests/EmripTests.cs
https://raw.githubusercontent.com/davegearing/SoloLearn/c2d23e521ce726e91e6c2792cfd77bc6b669c446/EmripNumbers.java
https://raw.githubusercontent.com/runpaint/numb/810beb5ace1282566bbe8cc9be1fe13dadc8b1fe/lib/numb/primes.rb
https://raw.githubusercontent.com/hoda-gharieb/Online-Judge-Sites/4c675ec51273aa5e721cd0d0b21c65de67862f22/UVA/Simply%20Emirp.txt
