https://raw.githubusercontent.com/Waqar-107/Codeforces/master/B-set/611B.%20New%20Year%20and%20Old%20Property.py
https://raw.githubusercontent.com/DionysiosB/CodeForces/master/611B-NewYearAndOldProperty.cpp
https://raw.githubusercontent.com/o-panda-o/MySolutions/master/Bitmask%20and%20Bit%20Manipulations/Code_611B_NewYearAndOldProperty.java
