https://raw.githubusercontent.com/adityagupta1089/Codeforces-Solutions/master/P257.py
https://raw.githubusercontent.com/fuwutu/CodeForces/master/257A%20-%20Sockets.cpp
https://raw.githubusercontent.com/o-panda-o/MySolutions/master/Greedy/Code_257A_Sockets.java
