https://raw.githubusercontent.com/Alackey/codeabbey-projects/master/Minimum%20of%20Two/src/Main.java
https://raw.githubusercontent.com/marclerodrigues/ruby_exercises/master/min_of_two.rb
https://raw.githubusercontent.com/Tempurturtul/CodeAbbey/master/C%23/MinOfTwo.cs
https://raw.githubusercontent.com/jsenne/Code-Abbey-Solutions/master/004_MinimumOfTwo.js
https://raw.githubusercontent.com/snowhawk04/CodeAbbey/master/p004/main.cpp
https://raw.githubusercontent.com/chriswood/codeabbey/master/ca4.lisp
https://raw.githubusercontent.com/RyanLafferty/CodeAbbey/master/p4.c
https://raw.githubusercontent.com/mpeshehonov/Codeabbey/master/practice/%234/index.php
https://raw.githubusercontent.com/mmcdon20/code_abbey/master/src/main/scala/Abbey004.scala
https://raw.githubusercontent.com/YetAnotherMinion/YAMScratch/master/CodeAbbey/rust-sol/src/4.rs
https://raw.githubusercontent.com/vinitkantrod/go-codeabbey/master/04_min_of_two/main.go
https://raw.githubusercontent.com/MadcapJake/codeabbey-problems/master/perl6/min-of-two/min-of-two.pl
https://gitlab.com/CodeArtisan/codeabbey/raw/master/problem_4/solution.rkt
https://www.youtube.com/watch?v=P-2BWHbW-SA
https://www.youtube.com/watch?v=QDc6Fn0SejU
https://raw.githubusercontent.com/skilled19/sols/master/siloimwald-04-min-of-two.fs
https://raw.githubusercontent.com/skilled19/sols/master/harv/codeabbey-4-min-of-twovb
https://pastebin.com/raw/M7U4W02z
https://pastebin.com/raw/xrwFvmfR
https://pastebin.com/raw/K1wKaH98
https://pastebin.com/raw/R6MDBz2S
https://pastebin.com/raw/AdsvDFbA
https://pastebin.com/raw/uKQ5w1tf
https://pastebin.com/raw/zr6m7YyY
https://pastebin.com/raw/Jn0rf1Pj
https://pastebin.com/raw/HHtxxpeb
https://pastebin.com/raw/WuwE8Aju
https://raw.githubusercontent.com/ValeWasTaken/CodeAbbey_Solutions/master/Python/id004-Minimum_of_Two.py
