https://raw.githubusercontent.com/rofrol/rust-hackerrank/master/src/bin/utopian-tree.rs
https://raw.githubusercontent.com/mattspaulding/hacker-rank/master/HackerRank/Algorithms/Warmup/UtopianTree.cs
https://raw.githubusercontent.com/RodneyShag/HackerRank_solutions/master/General%20Programming/Basic%20Programming/Utopian%20Tree/Solution.java
https://raw.githubusercontent.com/danhenriquesc/hackerrank/master/algorithms/implementation/utopian_tree.php
https://raw.githubusercontent.com/vachannd/Hackerrank-solutions/master/Utopian-tree-python
https://raw.githubusercontent.com/RyanFehr/HackerRank/master/Algorithms/Implementation/Utopian%20Tree/Solution.js
