https://raw.githubusercontent.com/ZLester/Coderbyte-Solutions/master/Medium/09%20-%20Binary%20Converter.js
https://raw.githubusercontent.com/Gamer1092/Coderbyte-Medium/Medium/Binary%20Converter.cpp
https://raw.githubusercontent.com/brbcoding/Coderbyte/master/Medium/BinaryConverter.rb
https://raw.githubusercontent.com/designerGenes/CoderbyteInSwift/master/BinaryConverter/BinaryConverter.playground/Contents.swift
https://raw.githubusercontent.com/GabrielGhe/CoderbyteChallenges/master/medium_BinaryConverter.py
