https://github.com/rolandhartanto/Capture-The-Flag/blob/master/ctflearn/ctflearn.md#web-exploitation
https://github.com/cerc-undip/CTF-Learn-Writeup/tree/master/post_practice_COMPLETE
https://www.youtube.com/watch?v=b0fxCUosOAA
https://www.youtube.com/watch?v=QU6BMl50VUg
https://www.embeddedhacker.com/2020/01/hacking-walkthrough-ctflearn-web-medium/
https://www.youtube.com/watch?v=D_Loox4pIrU
