https://exercism.io/tracks/csharp/exercises/all-your-base/solutions/6e888fe0bd1b472291f24a04b4ba90a6
https://exercism.io/tracks/bash/exercises/all-your-base/solutions/3729661f6a3c4e319b64e395be707138
https://exercism.io/tracks/c/exercises/all-your-base/solutions/920554dce109429e8c07c2b954dcc1d2
https://exercism.io/tracks/cpp/exercises/all-your-base/solutions/bb9781f218dd4eb698eaeea0e8edaa04
https://exercism.io/tracks/clojure/exercises/all-your-base/solutions/7b5ad75024184d5db2aeef3872eae2db
https://exercism.io/tracks/crystal/exercises/all-your-base/solutions/8a02ec7f0c8f485f959462b673d74c04
https://exercism.io/tracks/delphi/exercises/all-your-base/solutions/5f612946e1e8460987db9d6891c2aa17
https://exercism.io/tracks/elixir/exercises/all-your-base/solutions/2b90ef198ffd404cbbd7fdb50b524ce8
https://exercism.io/tracks/erlang/exercises/all-your-base/solutions/b831dd4b751d4f00b5f0d7872d1936a4
https://exercism.io/tracks/javascript/exercises/all-your-base/solutions/e76a6efab40e4e86a82dbb4d004c8777
