https://raw.githubusercontent.com/feix/ctf-writeup/master/canyouhackit/logic/solution1
https://sithlab.tistory.com/1436
https://raw.githubusercontent.com/pastelito02/Challenges-sol/master/canyouhackit/Logic/solution1.lst
