https://www.youtube.com/watch?v=90BJJ9wqnjo
https://medium.com/@DM20911/writeup-zipper-hack-the-box-espa%C3%B1ol-spanish-b4df3dca650f
https://www.absolomb.com/2019-02-26-HackTheBox-Zipper/
https://www.hackingarticles.in/hack-the-box-zipper-walkthrough/
https://www.sombrero-blanco.com/ciberseguridad/hack-the-box-writeup-zipper-spanish/
https://0xrick.github.io/hack-the-box/zipper/
https://snowscan.io/htb-writeup-zipper/#
