https://raw.githubusercontent.com/andrewrk/hackerrank/master/game-of-thrones/main.rs
https://raw.githubusercontent.com/derekhh/HackerRank/master/game-of-thrones.cpp
https://raw.githubusercontent.com/MaskRay/HackerRank/master/game-of-throne-ii.rb
https://raw.githubusercontent.com/MaskRay/HackerRank/master/game-of-thrones.hs
