https://raw.githubusercontent.com/d4rkvaibhav/picoCTF-2018-Writeups/master/WEB_EXPLOITATION/MR.ROBOTS/README.MD
https://raw.githubusercontent.com/mzfr/ctf-writeups/master/picoCTF-2018/Web_exploitation/Mr.%20Robots/readme.md
https://raw.githubusercontent.com/PlatyPew/picoctf-2018-writeup/master/Web%20Exploitation/Mr.%20Robots/README.md
https://tcode2k16.github.io/blog/posts/picoctf-2018-writeup/web-exploitation/#mr-robots
https://ctftime.org/writeup/11731
https://ctftime.org/writeup/11710
https://ctftime.org/writeup/11630
