https://raw.githubusercontent.com/DDOS-Attacks/ctf-writeups/master/2017/Google%20Capture%20The%20Flag%202017%20-Quals/Web/Joe/README.md
https://www.youtube.com/watch?v=vEHxk9JI_Po
https://www.jianshu.com/p/f1536020e90c
https://maxisom.me/blog/J03B07_Wr173up.pdf
https://robinverton.de/ctf/googlectf-2017-joe-web/
