https://raw.githubusercontent.com/KrauserSan/CodeAbbey_SolutionSet/master/Java_Solutions/IntroducingRegexps.java
https://raw.githubusercontent.com/chrisdfrey/code-abbey-solutions/master/introducing-regexps.py
https://raw.githubusercontent.com/JesseClarkND/codeabbey_in_C-NET/master/Introducing%20Regexps
