https://raw.githubusercontent.com/nayuki/Project-Euler-solutions/master/java/p039.java
https://raw.githubusercontent.com/sile/euler.rs/master/euler_01/src/problem039.rs
https://raw.githubusercontent.com/kdungs/euler/master/039/euler_39.hs
https://www.mathblog.dk/project-euler-39-perimeter-right-angle-triangle/
https://raw.githubusercontent.com/zimpha/competitive-programming/master/project-euler/volume01/39.cc
https://raw.githubusercontent.com/nayuki/Project-Euler-solutions/blob/master/python/p039.py
