https://raw.githubusercontent.com/marioyc/Online-Judge-Solutions/master/Codeforces/12C.cpp
https://codeforces.com/contest/12/submission/71273571
https://codeforces.com/contest/12/submission/71148892
https://codeforces.com/contest/12/submission/70496503
https://codeforces.com/contest/12/submission/70446401
