https://raw.githubusercontent.com/vfonic/SPOJ/master/absys.cpp
https://raw.githubusercontent.com/kashsingh/SPOJ-Python-Solutions/master/CANDY3.py
https://raw.githubusercontent.com/sp1rs/SPOJ-Classical/master/candy3.java
