23
437369254
462213045
390246739
134277815
15254156
181737488
203110800
407710612
234919181
192769098
384203808
329803711
269539368
360623232
229687812
258093938
240646084
81880333
12190086
88996060
453034141
137146868
31744927
